<svg width="6" height="5" viewBox="0 0 6 5" xmlns="http://www.w3.org/2000/svg">
    <path d="M3.78087 4.02391C3.38054 4.52432 2.61946 4.52432 2.21913 4.02391L0.299756 1.6247C-0.224055 0.969932 0.242118 0 1.08062 0L4.91938 0C5.75788 0 6.22405 0.969932 5.70024 1.62469L3.78087 4.02391Z"/>
</svg>
